-------------------------------------------------------------------------------
Test set: runner.TestRunner
-------------------------------------------------------------------------------
Tests run: 2, Failures: 0, Errors: 1, Skipped: 0, Time elapsed: 2.679 sec <<< FAILURE!
To test if user is able to fetch the current weather details for New York city with missing key.(To test the various scenarios for fetching the NewYorks current weather details from weather stack api calls.)  Time elapsed: 0.286 sec  <<< ERROR!
java.lang.ClassCastException: java.lang.Integer cannot be cast to java.lang.String
	at stepDefinitions.Steps.fetchValuesFromResponse(Steps.java:56)
	at ?.I fetch the values for(file:///C:/Users/paree/OneDrive/Documents/Automation/WeatherStack/weatherstackstanc/src/test/resources/Feature/NewYork_CurrentWeather.feature:22)

